OracleConnection conn = new OracleConnection();
            conn.ConnectionString = "Data Source=xe;User ID=UNIPOLI1;Password=UNIPOLI;Unicode=True;";
            OracleCommand cmd = new OracleCommand();
            cmd.Connection = conn;
            cmd.CommandText = "insert into ESPECIALIDADES(ID_ESPECIALIDADES, NOMBRE_ESPECIALIDAD) values (3, 'especialidades')";
            cmd.CommandType = CommandType.Text;
            conn.Open();
            int res = cmd.ExecuteNonQuery();
            if (res > 0)
                MessageBox.Show("yeah");
            else
                MessageBox.Show("noyeah");
            conn.Close();
            cmd.Parameters.Clear();